﻿<?xml version="1.0" encoding="utf-8"?>
<svg version="1.1" xmlns:xlink="http://www.w3.org/1999/xlink" width="12px" height="12px" xmlns="http://www.w3.org/2000/svg">
  <g transform="matrix(1 0 0 1 -586 -15 )">
    <path d="M 11.7 10.299999999999999  L 7.4 6  L 11.7 1.7000000000000002  C 12.1 1.3000000000000003  12.1 0.7000000000000002  11.7 0.3000000000000003  C 11.299999999999999 -0.09999999999999959  10.7 -0.0999999999999997  10.299999999999999 0.3000000000000003  L 6 4.6  L 1.7000000000000002 0.30000000000000004  C 1.3 -0.09999999999999998  0.7000000000000002 -0.09999999999999998  0.30000000000000027 0.30000000000000004  C -0.09999999999999964 0.7  -0.09999999999999976 1.3  0.30000000000000027 1.7  L 4.6 6  L 0.30000000000000004 10.3  C -0.09999999999999998 10.700000000000001  -0.09999999999999998 11.3  0.30000000000000004 11.700000000000001  C 0.5000000000000002 11.9  0.7000000000000002 12  1.0000000000000002 12  C 1.3000000000000003 12  1.5000000000000004 11.9  1.7000000000000002 11.7  L 6 7.4  L 10.3 11.7  C 10.5 11.899999999999999  10.8 12  11 12  C 11.2 12  11.5 11.9  11.7 11.7  C 12.1 11.299999999999999  12.1 10.7  11.7 10.299999999999999  Z " fill-rule="nonzero" fill="#5b6670" stroke="none" transform="matrix(1 0 0 1 586 15 )" />
  </g>
</svg>